01715050937
03213134654
032131346541221
01717405848
01972863655
01727224923
01916402452
01735541678
01722204994
01718068545
01717446325
01914405057
01778971595
01718624989
01725903614
26546546546
79798712035
989712310143
01779221842
01779221849
165465465
548748489789
0123456
012345679879
012345674121879
77898897
0152456023
